jp/co/todo_list/controller/HomeController.class
jp/co/todo_list/mapper/TaskMapper.class
jp/co/todo_list/form/TaskForm.class
jp/co/todo_list/entity/Task.class
jp/co/todo_list/service/TaskService.class
jp/co/todo_list/dto/task/TaskDto.class
